{
    "_id": "5dff6e111456970316674a04",
    "tags": [
        "avionic"
    ],
    "icon": "icons/en/anode_cell_(lavan).ff5f23593d0850514dd7b63c3a16d8c9.png",
    "thumb": "icons/en/thumbs/anode_cell_(lavan).ff5f23593d0850514dd7b63c3a16d8c9.128x128.png",
    "icon_format": "port",
    "url_name": "anode_cell_(lavan)",
    "tradable": true,
    "en": {
        "item_name": "Anode Cell (Lavan)",
        "description": "A Integrated Avionics that increases Shield Recharge rate",
        "wiki_link": "https://warframe.fandom.com/wiki/Avionics#Anode_Cell",
        "drop": [
            {
                "name": "Cannon Battery",
                "link": null
            },
            {
                "name": "Kosma Taktis",
                "link": null
            },
            {
                "name": "Elite Kosma Flak",
                "link": null
            },
            {
                "name": "Elite Kosma Taktis",
                "link": null
            },
            {
                "name": "Elite Exo Taktis",
                "link": null
            }
        ]
    },
    "ru": {
        "item_name": "Anode Cell (Lavan)",
        "description": "A Integrated Avionics that increases Shield Recharge rate",
        "wiki_link": "https://warframe.fandom.com/wiki/Avionics#Anode_Cell",
        "drop": [
            {
                "name": "Cannon Battery",
                "link": null
            },
            {
                "name": "Kosma Taktis",
                "link": null
            },
            {
                "name": "Elite Kosma Flak",
                "link": null
            },
            {
                "name": "Elite Kosma Taktis",
                "link": null
            },
            {
                "name": "Elite Exo Taktis",
                "link": null
            }
        ]
    },
    "ko": {
        "item_name": "Anode Cell (Lavan)",
        "description": "A Integrated Avionics that increases Shield Recharge rate",
        "wiki_link": "https://warframe.fandom.com/wiki/Avionics#Anode_Cell",
        "drop": [
            {
                "name": "Cannon Battery",
                "link": null
            },
            {
                "name": "Kosma Taktis",
                "link": null
            },
            {
                "name": "Elite Kosma Flak",
                "link": null
            },
            {
                "name": "Elite Kosma Taktis",
                "link": null
            },
            {
                "name": "Elite Exo Taktis",
                "link": null
            }
        ]
    }
}