{
    "_id": "5667519a5dcbc186f0536bd4",
    "tags": [
        "arcane enhancements"
    ],
    "icon": "icons/en/Arcane_Tempo.8e5a0c4378df14ffdb5597ff8da8b828.png",
    "thumb": "icons/en/thumbs/Arcane_Tempo.8e5a0c4378df14ffdb5597ff8da8b828.128x128.png",
    "icon_format": "land",
    "url_name": "arcane_tempo",
    "tradable": true,
    "en": {
        "item_name": "Arcane Tempo",
        "description": "<p>Arcane Tempo is an Arcane Enhancement that provides a chance whenever the player upon achieving a critical Hit to increase Fire Rate on Shotguns for a short time. </p>",
        "wiki_link": "http://warframe.wikia.com/wiki/Arcane_Tempo",
        "drop": []
    },
    "ru": {
        "item_name": "Мистический Темп",
        "description": "<p>При критических попаданиях шанс увеличить скорость атаки для дробовиков.</p>",
        "wiki_link": "http://ru.warframe.wikia.com/wiki/%D0%9C%D0%B8%D1%81%D1%82%D0%B8%D1%87%D0%B5%D1%81%D0%BA%D0%B8%D0%B9_%D0%A2%D0%B5%D0%BC%D0%BF",
        "drop": []
    },
    "ko": {
        "item_name": "아케인 템포",
        "description": "<p>Arcane Tempo is an Arcane Enhancement that provides a chance whenever the player upon achieving a critical Hit to increase Fire Rate on Shotguns for a short time. </p>",
        "wiki_link": "http://warframe.wikia.com/wiki/Arcane_Tempo",
        "drop": []
    },
    "rarity": "common",
    "mod_max_rank": 3,
    "trading_tax": 2000
}