{
    "_id": "5dff6e1014569703166749e3",
    "tags": [
        "avionic"
    ],
    "icon": "icons/en/breach_quanta.ff5f23593d0850514dd7b63c3a16d8c9.png",
    "thumb": "icons/en/thumbs/breach_quanta.ff5f23593d0850514dd7b63c3a16d8c9.128x128.png",
    "icon_format": "port",
    "url_name": "breach_quanta",
    "tradable": true,
    "en": {
        "item_name": "Breach Quanta",
        "description": "A Tactical Avionics that temporarily stalls Hull Breach. Cooldown of 300s",
        "wiki_link": "https://warframe.fandom.com/wiki/Avionics#Breach_Quanta",
        "drop": [
            {
                "name": "Elite Exo Taktis",
                "link": null
            }
        ]
    },
    "ru": {
        "item_name": "Breach Quanta",
        "description": "A Tactical Avionics that temporarily stalls Hull Breach. Cooldown of 300s",
        "wiki_link": "https://warframe.fandom.com/wiki/Avionics#Breach_Quanta",
        "drop": [
            {
                "name": "Elite Exo Taktis",
                "link": null
            }
        ]
    },
    "ko": {
        "item_name": "Breach Quanta",
        "description": "A Tactical Avionics that temporarily stalls Hull Breach. Cooldown of 300s",
        "wiki_link": "https://warframe.fandom.com/wiki/Avionics#Breach_Quanta",
        "drop": [
            {
                "name": "Elite Exo Taktis",
                "link": null
            }
        ]
    },
    "mod_max_rank": 4
}