{
    "_id": "5dff6e111456970316674a1d",
    "tags": [
        "avionic"
    ],
    "icon": "icons/en/form_up.ff5f23593d0850514dd7b63c3a16d8c9.png",
    "thumb": "icons/en/thumbs/form_up.ff5f23593d0850514dd7b63c3a16d8c9.128x128.png",
    "icon_format": "port",
    "url_name": "form_up",
    "tradable": true,
    "en": {
        "item_name": "Form Up",
        "description": "A Tactical Avionics that recalls all Crew Members to the Railjack and heal them. Cooldown of 240s.",
        "wiki_link": "https://warframe.fandom.com/wiki/Avionics#Form_Up",
        "drop": [
            {
                "name": "Elite Gyre Cutter",
                "link": null
            }
        ]
    },
    "ru": {
        "item_name": "Form Up",
        "description": "A Tactical Avionics that recalls all Crew Members to the Railjack and heal them. Cooldown of 240s.",
        "wiki_link": "https://warframe.fandom.com/wiki/Avionics#Form_Up",
        "drop": [
            {
                "name": "Elite Gyre Cutter",
                "link": null
            }
        ]
    },
    "ko": {
        "item_name": "Form Up",
        "description": "A Tactical Avionics that recalls all Crew Members to the Railjack and heal them. Cooldown of 240s.",
        "wiki_link": "https://warframe.fandom.com/wiki/Avionics#Form_Up",
        "drop": [
            {
                "name": "Elite Gyre Cutter",
                "link": null
            }
        ]
    },
    "mod_max_rank": 4
}