{
    "_id": "5c1bda1314a8e4006b1dad81",
    "tags": [
        "arcane enhancements",
        "operator"
    ],
    "icon": "icons/en/Magus_Anomaly.3f06b6fc67779e08e0f55c9d04db0da2.png",
    "thumb": "icons/en/thumbs/Magus_Anomaly.3f06b6fc67779e08e0f55c9d04db0da2.128x128.png",
    "icon_format": "land",
    "url_name": "magus_anomaly",
    "tradable": true,
    "en": {
        "item_name": "Magus Anomaly",
        "description": "<p>ON TRANSFERENCE IN: Enemies within 5/10/15/20m are pulled towards Warframe.</p>",
        "wiki_link": "http://warframe.wikia.com/wiki/Magus_Anomaly",
        "drop": []
    },
    "ru": {
        "item_name": "Аномалия Волхва",
        "description": "<p>Аномалия Волхва - мистификатор для Оператора, который притягивает врагов в определённом радиусе при переносе в варфрейма.</p>",
        "wiki_link": "https://warframe.fandom.com/ru/wiki/%D0%90%D0%BD%D0%BE%D0%BC%D0%B0%D0%BB%D0%B8%D1%8F_%D0%92%D0%BE%D0%BB%D1%85%D0%B2%D0%B0",
        "drop": []
    },
    "ko": {
        "item_name": "마구스 어노말리",
        "description": "<p>ON TRANSFERENCE IN: Enemies within 5/10/15/20m are pulled towards Warframe.</p>",
        "wiki_link": "http://warframe.wikia.com/wiki/Magus_Anomaly",
        "drop": []
    },
    "mod_max_rank": 3
}