{
    "_id": "5a04750d6c4655012038ddcc",
    "tags": [
        "arcane enhancements",
        "operator"
    ],
    "icon": "icons/en/Magus_Replenish.b65658da1b4a7e7090c6439e28476d39.png",
    "thumb": "icons/en/thumbs/Magus_Replenish.b65658da1b4a7e7090c6439e28476d39.128x128.png",
    "icon_format": "land",
    "url_name": "magus_replenish",
    "tradable": true,
    "en": {
        "item_name": "Magus Replenish",
        "description": "<p>Magus Replenish is an Arcane Enhancement for the Operator that has a chance to restore health after performing a Void Dash.</p>",
        "wiki_link": "http://warframe.wikia.com/wiki/Magus_Replenish",
        "drop": []
    },
    "ru": {
        "item_name": "Восполнение Волхва",
        "description": "<p>Восполнение Волхва - мистификатор для Оператора, который с некоторым шансом восполняет часть здоровья Оператора после использования рывка бездны.</p>",
        "wiki_link": "http://ru.warframe.wikia.com/wiki/%D0%92%D0%BE%D1%81%D0%BF%D0%BE%D0%BB%D0%BD%D0%B5%D0%BD%D0%B8%D0%B5_%D0%92%D0%BE%D0%BB%D1%85%D0%B2%D0%B0",
        "drop": []
    },
    "ko": {
        "item_name": "마구스 리플레니쉬",
        "description": "<p>Magus Replenish is an Arcane Enhancement for the Operator that has a chance to restore health after performing a Void Dash.</p>",
        "wiki_link": "http://warframe.wikia.com/wiki/Magus_Replenish",
        "drop": []
    },
    "mod_max_rank": 3,
    "trading_tax": 0
}