{
    "_id": "5dff6e1014569703166749dd",
    "tags": [
        "avionic"
    ],
    "icon": "icons/en/shatter_burst.ff5f23593d0850514dd7b63c3a16d8c9.png",
    "thumb": "icons/en/thumbs/shatter_burst.ff5f23593d0850514dd7b63c3a16d8c9.128x128.png",
    "icon_format": "port",
    "url_name": "shatter_burst",
    "tradable": true,
    "en": {
        "item_name": "Shatter Burst",
        "description": "A Battle Avionics that launches a rocket that functions similar to Elytron's Thumper in that it creates an area of effect that continuously releases explosions that damage enemies, will detonate on impact with a surface or manually by pressing the ability button again",
        "wiki_link": "https://warframe.fandom.com/wiki/Avionics#Shatter_Burst",
        "drop": [
            {
                "name": "Elite Exo Flak",
                "link": null
            }
        ]
    },
    "ru": {
        "item_name": "Shatter Burst",
        "description": "A Battle Avionics that launches a rocket that functions similar to Elytron's Thumper in that it creates an area of effect that continuously releases explosions that damage enemies, will detonate on impact with a surface or manually by pressing the ability button again",
        "wiki_link": "https://warframe.fandom.com/wiki/Avionics#Shatter_Burst",
        "drop": [
            {
                "name": "Elite Exo Flak",
                "link": null
            }
        ]
    },
    "ko": {
        "item_name": "Shatter Burst",
        "description": "A Battle Avionics that launches a rocket that functions similar to Elytron's Thumper in that it creates an area of effect that continuously releases explosions that damage enemies, will detonate on impact with a surface or manually by pressing the ability button again",
        "wiki_link": "https://warframe.fandom.com/wiki/Avionics#Shatter_Burst",
        "drop": [
            {
                "name": "Elite Exo Flak",
                "link": null
            }
        ]
    },
    "mod_max_rank": 4
}