{
    "_id": "573b7fc20ec44a47787a690e",
    "tags": [
        "parts",
        "chassis",
        "prime",
        "warframe"
    ],
    "icon": "icons/en/vauban_prime_chassis.9c15bb47d3ed4ed8e960c2502fac82f2.png",
    "thumb": "icons/en/thumbs/vauban_prime_chassis.9c15bb47d3ed4ed8e960c2502fac82f2.128x128.png",
    "icon_format": "port",
    "sub_icon": "sub_icons/chassis_128x128.png",
    "url_name": "vauban_prime_chassis",
    "tradable": true,
    "part_of_set": [
        "573b7fcc0ec44a47787a6910",
        "573b7fbd0ec44a47787a690d",
        "573b7fc20ec44a47787a690e",
        "573b7fc80ec44a47787a690f",
        "573d0efa336297b2dfca2909"
    ],
    "set_root": false,
    "en": {
        "item_name": "Vauban Prime Chassis",
        "description": "<p>Release Date: May 17th, 2016</p><p>Vauban Prime is the Prime variant of the Vauban Warframe featuring higher shields and armor values, as well as an additional  polarity.</p>",
        "wiki_link": "http://warframe.wikia.com/wiki/Vauban/Prime",
        "drop": [
            {
                "name": "Axi V1 Rare",
                "link": null
            },
            {
                "name": "Lith V4 Rare",
                "link": null
            },
            {
                "name": "Meso V4 Rare",
                "link": null
            },
            {
                "name": "Neo V6 Rare",
                "link": null
            }
        ]
    },
    "ru": {
        "item_name": "Вобан Прайм Каркас",
        "description": "<p>Мастер тактики Вобан может создавать ловушки, которые наносят урон электричеством, обездвиживают и пространственно сминают врагов.</p>",
        "wiki_link": "http://ru.warframe.wikia.com/wiki/%D0%92%D0%BE%D0%B1%D0%B0%D0%BD",
        "drop": [
            {
                "name": "Акси V1 (Редкая)",
                "link": null
            },
            {
                "name": "Лит V4 (Редкая)",
                "link": null
            },
            {
                "name": "Мезо V4 (Редкая)",
                "link": null
            },
            {
                "name": "Нео V6 (Редкая)",
                "link": null
            }
        ]
    },
    "ko": {
        "item_name": "바우반 프라임 섀시",
        "description": "<p>Release Date: May 17th, 2016</p><p>Vauban Prime is the Prime variant of the Vauban Warframe featuring higher shields and armor values, as well as an additional  polarity.</p>",
        "wiki_link": "http://warframe.wikia.com/wiki/Vauban/Prime",
        "drop": [
            {
                "name": "액시 V1 Rare",
                "link": null
            },
            {
                "name": "리스 V4 Rare",
                "link": null
            },
            {
                "name": "메소 V4 Rare",
                "link": null
            },
            {
                "name": "네오 V6 Rare",
                "link": null
            }
        ]
    },
    "mastery_level": 0,
    "ducats": 100,
    "trading_tax": 4000
}