{
    "_id": "5dff6e0f14569703166749cb",
    "tags": [
        "avionic"
    ],
    "icon": "icons/en/winged_force_(vidar).ff5f23593d0850514dd7b63c3a16d8c9.png",
    "thumb": "icons/en/thumbs/winged_force_(vidar).ff5f23593d0850514dd7b63c3a16d8c9.128x128.png",
    "icon_format": "port",
    "url_name": "winged_force_(vidar)",
    "tradable": true,
    "en": {
        "item_name": "Winged Force (Vidar)",
        "description": "A Integrated Avionics that increases shields of nearby Archwings",
        "wiki_link": "https://warframe.fandom.com/wiki/Avionics#Winged_Force",
        "drop": [
            {
                "name": "Exo Outrider",
                "link": null
            },
            {
                "name": "Elite Kosma Taktis",
                "link": null
            },
            {
                "name": "Elite Gyre Flak",
                "link": null
            }
        ]
    },
    "ru": {
        "item_name": "Winged Force (Vidar)",
        "description": "A Integrated Avionics that increases shields of nearby Archwings",
        "wiki_link": "https://warframe.fandom.com/wiki/Avionics#Winged_Force",
        "drop": [
            {
                "name": "Exo Outrider",
                "link": null
            },
            {
                "name": "Elite Kosma Taktis",
                "link": null
            },
            {
                "name": "Elite Gyre Flak",
                "link": null
            }
        ]
    },
    "ko": {
        "item_name": "Winged Force (Vidar)",
        "description": "A Integrated Avionics that increases shields of nearby Archwings",
        "wiki_link": "https://warframe.fandom.com/wiki/Avionics#Winged_Force",
        "drop": [
            {
                "name": "Exo Outrider",
                "link": null
            },
            {
                "name": "Elite Kosma Taktis",
                "link": null
            },
            {
                "name": "Elite Gyre Flak",
                "link": null
            }
        ]
    },
    "mod_max_rank": 1
}