{
    "_id": "5e021024da26e8e5fe5b49e7",
    "url_name": "quellor",
    "group": "primary",
    "riven_type": "rifle",
    "icon": "icons/en/quellor.4a72101e1ef7e50287d619e68a44d97e.png",
    "thumb": "icons/en/thumbs/quellor.4a72101e1ef7e50287d619e68a44d97e.128x128.png",
    "icon_format": "land",
    "en": {
        "item_name": "Quellor",
        "wiki_link": "https://warframe.fandom.com/wiki/Quellor"
    },
    "ru": {
        "item_name": "Кэллор",
        "wiki_link": "https://warframe.fandom.com/wiki/Quellor"
    },
    "ko": {
        "item_name": "Quellor",
        "wiki_link": "https://warframe.fandom.com/wiki/Quellor"
    }
}