{
    "_id": "5c5ca81a96e8d2003834fe74",
    "url_name": "impact_damage",
    "group": "default",
    "prefix": "Magna",
    "suffix": "Ton",
    "icon": "static/assets/icons/Impact_b.4f5389c47e5a258803c4e58dd8c6c146.svg",
    "positive_is_negative": false,
    "exclusive_to": null,
    "en": {
        "effect": "Impact Damage"
    },
    "ru": {
        "effect": "Ударный урон"
    },
    "ko": {
        "effect": "충격 피해"
    }
}